HW 4
…
## # A tibble: 6 x 4
##   country indicator    year value
##   <chr>   <chr>       <int> <dbl>
## 1 ABW     SP.URB.TOTL  2000 42444
## 2 ABW     SP.URB.TOTL  2001 43048
## 3 ABW     SP.URB.TOTL  2002 43670
## 4 ABW     SP.URB.TOTL  2003 44246
## 5 ABW     SP.URB.TOTL  2004 44669
## 6 ABW     SP.URB.TOTL  2005 44889

myworld2%>%count(country,indicator,sort = TRUE) # find the number of times a country is used for every type of indicator

## # A tibble: 1,056 x 3
##    country indicator       n
##    <chr>   <chr>       <int>
##  1 ABW     SP.POP.GROW    18
##  2 ABW     SP.POP.TOTL    18
##  3 ABW     SP.URB.GROW    18
##  4 ABW     SP.URB.TOTL    18
##  5 AFG     SP.POP.GROW    18
##  6 AFG     SP.POP.TOTL    18
##  7 AFG     SP.URB.GROW    18
##  8 AFG     SP.URB.TOTL    18
##  9 AGO     SP.POP.GROW    18
## 10 AGO     SP.POP.TOTL    18
## #  with 1,046 more rows

myworld2%>%count(country,sort = TRUE) # just to confirm that the total number of rows 

## # A tibble: 264 x 2
##    country     n
##    <chr>   <int>
##  1 ABW        72
##  2 AFG        72
##  3 AGO        72
##  4 ALB        72
##  5 AND        72
##  6 ARB        72
##  7 ARE        72
##  8 ARG        72
##  9 ARM        72
## 10 ASM        72
## #  with 254 more rows
…
Urban population growth reached its peak above 2.3 at around 2002-2003 and has declined ever since until past 2005. After 2005, there was a momentary spike upward at around 2007-2007 but has declined until experiencing a sharp decline after 2010. Ever since, the rate of decrease is still present, but a lot slower after 2011. For total population growth, its been steadily decreasing till a a short while after 2010. There was an all-time low at the time at 2011, but it steadily gre back and has similarily, the rate of decrease is still present, but its a bit higher than the urban population growth after 2011. 

1.5 (2 pts) Use one of the pivot functions to create a new dataset, myworld3, with the different categories for the indicator variable appearing as their own variables. Use dplyr functions to rename SP.POP.GROW and SP.URB.GROW, as pop_growth and pop_urb_growth respectively. What is the country code that had the highest population growth in 2017?

myworld3 <- myworld2 %>% pivot_wider( names_from= indicator,values_from= value)
myworld3 <- myworld3 %>% rename(pop_growth = SP.POP.GROW, pop_urb_growth = SP.URB.GROW)
myworld3 %>% filter(year==2017) %>% arrange(desc(pop_growth))

## # A tibble: 264 x 6
##    country  year SP.URB.TOTL pop_urb_growth SP.POP.TOTL pop_growth
##    <chr>   <int>       <dbl>          <dbl>       <dbl>      <dbl>
##  1 OMN      2017     3874061           5.95     4636262       4.67
##  2 BHR      2017     1331176           4.73     1492584       4.62
##  3 NRU      2017       13649           4.50       13649       4.50
##  4 NER      2017     3511546           4.18    21477348       3.82
##  5 GNQ      2017      908248           4.42     1267689       3.71
##  6 AGO      2017    19311773           4.38    29784193       3.31
##  7 UGA      2017     9942492           5.76    42862958       3.26
##  8 COD      2017    35691987           4.57    81339988       3.25
##  9 BDI      2017     1380411           5.72    10864245       3.18
## 10 TZA      2017    18942681           5.28    57310019       3.08
## #  with 254 more rows
…
